…
``` r
number_trees <- vancouver_trees %>% 
  group_by(neighbourhood_name) %>%
  summarize(trees_count = sum(neighbourhood_name !="X")) 

neighborhood_data <- neighborhood_data %>%
  add_column(tree_count = number_trees$trees_count) %>%
print()
```

    ## # A tibble: 22 x 3
    ##    neighbourhood_name       `n_distinct(genus_species)` tree_count
    ##    <chr>                                          <int>      <int>
    ##  1 ARBUTUS-RIDGE                                    146       5169
    ##  2 DOWNTOWN                                          94       5159
    ##  3 DUNBAR-SOUTHLANDS                                207       9415
    ##  4 FAIRVIEW                                         143       4002
    ##  5 GRANDVIEW-WOODLAND                               183       6703
    ##  6 HASTINGS-SUNRISE                                 213      10547
    ##  7 KENSINGTON-CEDAR COTTAGE                         195      11042
    ##  8 KERRISDALE                                       173       6936
    ##  9 KILLARNEY                                        144       6148
    ## 10 KITSILANO                                        214       8115
    ## # ... with 12 more rows
…
